{
  "Hierarchy": [
    {
      "Name": "Panel",
      "Active": true,
      "TransformData": {
        "localPosition": {
          "x": 0.0,
          "y": 0.0,
          "z": 0.0
        },
        "localRotation": {
          "w": 1.0,
          "x": 0.0,
          "y": 0.0,
          "z": 0.0,
          "eulerAngles": {
            "x": 0.0,
            "y": 0.0,
            "z": 0.0
          }
        },
        "localScale": {
          "x": 0.99999994,
          "y": 0.99999994,
          "z": 1.0
        },
        "anchorMin": {
          "x": 0.5,
          "y": 0.5
        },
        "anchorMax": {
          "x": 0.5,
          "y": 0.5
        },
        "pivot": {
          "x": 0.5,
          "y": 0.5
        },
        "anchoredPosition": {
          "x": 0.0,
          "y": 0.0
        },
        "sizeDelta": {
          "x": 81.0,
          "y": 81.0
        }
      },
      "ComponentData": [
        {
          "Type": "UnityEngine.UI.Image, UnityEngine.UI, Version=1.0.0.0, Culture=neutral, PublicKeyToken=null",
          "Values": {
            "m_Material": {
              "m_FileID": 0,
              "m_PathID": 0
            },
            "m_Color": {
              "r": 0.0235294122248888,
              "g": 0.0235294122248888,
              "b": 0.054901961237192154,
              "a": 0.0
            },
            "m_RaycastTarget": false,
            "m_OnCullStateChanged": {
              "m_PersistentCalls": {
                "m_Calls": []
              },
              "m_TypeName": "UnityEngine.UI.MaskableGraphic+CullStateChangedEvent, UnityEngine.UI, Version=1.0.0.0, Culture=neutral, PublicKeyToken=null"
            },
            "m_Sprite": {
              "m_FileID": 0,
              "m_PathID": 0
            },
            "m_Type": 0,
            "m_PreserveAspect": true,
            "m_FillCenter": true,
            "m_FillMethod": 4,
            "m_FillAmount": 1.0,
            "m_FillClockwise": true,
            "m_FillOrigin": 0
          },
          "GameObjectRefs": {},
          "ComponentRefs": {},
          "SpriteRefs": {}
        },
        {
          "Type": "Besiege.UI.Bridge.Tooltip, Besiege.UI.Bridge, Version=1.0.0.0, Culture=neutral, PublicKeyToken=null",
          "Values": {
            "Direction": 2,
            "TooltipParent": {
              "m_FileID": -177192,
              "m_PathID": 0
            },
            "Triangle": {
              "m_FileID": -177214,
              "m_PathID": 0
            },
            "IsOpen": false,
            "FadeSpeed": 0.15000000596046448,
            "ExtendedPosition": {
              "x": 0.0,
              "y": 93.7233657836914,
              "z": 0.0
            }
          },
          "GameObjectRefs": {},
          "ComponentRefs": {
            "-177192": {
              "Type": "UnityEngine.RectTransform, UnityEngine, Version=0.0.0.0, Culture=neutral, PublicKeyToken=null",
              "Path": "Panel/Tooltip (Visual Only)",
              "Index": 0
            },
            "-177214": {
              "Type": "UnityEngine.RectTransform, UnityEngine, Version=0.0.0.0, Culture=neutral, PublicKeyToken=null",
              "Path": "Panel/Tooltip (Visual Only)/Background/Triangle",
              "Index": 0
            }
          },
          "SpriteRefs": {}
        }
      ],
      "Children": [
        {
          "Name": "Tooltip (Visual Only)",
          "Active": false,
          "TransformData": {
            "localPosition": {
              "x": 0.0,
              "y": 93.72336,
              "z": 0.0
            },
            "localRotation": {
              "w": 1.0,
              "x": 0.0,
              "y": 0.0,
              "z": 0.0,
              "eulerAngles": {
                "x": 0.0,
                "y": 0.0,
                "z": 0.0
              }
            },
            "localScale": {
              "x": 1.0,
              "y": 1.0,
              "z": 1.0
            },
            "anchorMin": {
              "x": 0.5,
              "y": 0.5
            },
            "anchorMax": {
              "x": 0.5,
              "y": 0.5
            },
            "pivot": {
              "x": 0.5,
              "y": 0.0
            },
            "anchoredPosition": {
              "x": 0.0,
              "y": 93.72336
            },
            "sizeDelta": {
              "x": 140.0,
              "y": 257.75
            }
          },
          "ComponentData": [
            {
              "Type": "UnityEngine.UI.VerticalLayoutGroup, UnityEngine.UI, Version=1.0.0.0, Culture=neutral, PublicKeyToken=null",
              "Values": {
                "m_Padding": {
                  "m_Left": 0,
                  "m_Right": 0,
                  "m_Top": 0,
                  "m_Bottom": 0
                },
                "m_ChildAlignment": 0,
                "m_Spacing": 10.0,
                "m_ChildForceExpandWidth": true,
                "m_ChildForceExpandHeight": false
              },
              "GameObjectRefs": {},
              "ComponentRefs": {},
              "SpriteRefs": {}
            },
            {
              "Type": "UnityEngine.UI.ContentSizeFitter, UnityEngine.UI, Version=1.0.0.0, Culture=neutral, PublicKeyToken=null",
              "Values": {
                "m_HorizontalFit": 0,
                "m_VerticalFit": 2
              },
              "GameObjectRefs": {},
              "ComponentRefs": {},
              "SpriteRefs": {}
            }
          ],
          "Children": [
            {
              "Name": "Background",
              "Active": true,
              "TransformData": {
                "localPosition": {
                  "x": 0.0,
                  "y": 129.375,
                  "z": 0.0
                },
                "localRotation": {
                  "w": 1.0,
                  "x": 0.0,
                  "y": 0.0,
                  "z": 0.0,
                  "eulerAngles": {
                    "x": 0.0,
                    "y": 0.0,
                    "z": 0.0
                  }
                },
                "localScale": {
                  "x": 1.0,
                  "y": 1.0,
                  "z": 1.0
                },
                "anchorMin": {
                  "x": 0.0,
                  "y": 0.0
                },
                "anchorMax": {
                  "x": 1.0,
                  "y": 1.0
                },
                "pivot": {
                  "x": 0.5,
                  "y": 0.5
                },
                "anchoredPosition": {
                  "x": 0.0,
                  "y": 0.5
                },
                "sizeDelta": {
                  "x": 30.0,
                  "y": 19.0
                }
              },
              "ComponentData": [
                {
                  "Type": "UnityEngine.UI.Image, UnityEngine.UI, Version=1.0.0.0, Culture=neutral, PublicKeyToken=null",
                  "Values": {
                    "m_Material": {
                      "m_FileID": 0,
                      "m_PathID": 0
                    },
                    "m_Color": {
                      "r": 0.10980392247438431,
                      "g": 0.125490203499794,
                      "b": 0.13333334028720856,
                      "a": 1.0
                    },
                    "m_RaycastTarget": false,
                    "m_OnCullStateChanged": {
                      "m_PersistentCalls": {
                        "m_Calls": []
                      },
                      "m_TypeName": "UnityEngine.UI.MaskableGraphic+CullStateChangedEvent, UnityEngine.UI, Version=1.0.0.0, Culture=neutral, PublicKeyToken=null"
                    },
                    "m_Sprite": {
                      "m_FileID": 0,
                      "m_PathID": 0
                    },
                    "m_Type": 0,
                    "m_PreserveAspect": true,
                    "m_FillCenter": true,
                    "m_FillMethod": 4,
                    "m_FillAmount": 1.0,
                    "m_FillClockwise": true,
                    "m_FillOrigin": 0
                  },
                  "GameObjectRefs": {},
                  "ComponentRefs": {},
                  "SpriteRefs": {}
                },
                {
                  "Type": "UnityEngine.UI.LayoutElement, UnityEngine.UI, Version=1.0.0.0, Culture=neutral, PublicKeyToken=null",
                  "Values": {
                    "m_IgnoreLayout": true,
                    "m_MinWidth": -1.0,
                    "m_MinHeight": -1.0,
                    "m_PreferredWidth": -1.0,
                    "m_PreferredHeight": -1.0,
                    "m_FlexibleWidth": -1.0,
                    "m_FlexibleHeight": -1.0
                  },
                  "GameObjectRefs": {},
                  "ComponentRefs": {},
                  "SpriteRefs": {}
                }
              ],
              "Children": [
                {
                  "Name": "Triangle",
                  "Active": true,
                  "TransformData": {
                    "localPosition": {
                      "x": 0.0,
                      "y": -138.375,
                      "z": 0.0
                    },
                    "localRotation": {
                      "w": -4.371139E-08,
                      "x": 0.0,
                      "y": 0.0,
                      "z": 1.0,
                      "eulerAngles": {
                        "x": 0.0,
                        "y": 0.0,
                        "z": 180.0
                      }
                    },
                    "localScale": {
                      "x": 1.0,
                      "y": 1.0,
                      "z": 1.0
                    },
                    "anchorMin": {
                      "x": 0.5,
                      "y": 0.0
                    },
                    "anchorMax": {
                      "x": 0.5,
                      "y": 0.0
                    },
                    "pivot": {
                      "x": 0.5,
                      "y": 0.0
                    },
                    "anchoredPosition": {
                      "x": 0.0,
                      "y": 0.0
                    },
                    "sizeDelta": {
                      "x": 17.0,
                      "y": 17.0
                    }
                  },
                  "ComponentData": [
                    {
                      "Type": "UnityEngine.UI.Image, UnityEngine.UI, Version=1.0.0.0, Culture=neutral, PublicKeyToken=null",
                      "Values": {
                        "m_Material": {
                          "m_FileID": 0,
                          "m_PathID": 0
                        },
                        "m_Color": {
                          "r": 0.10980392247438431,
                          "g": 0.125490203499794,
                          "b": 0.13333334028720856,
                          "a": 1.0
                        },
                        "m_RaycastTarget": false,
                        "m_OnCullStateChanged": {
                          "m_PersistentCalls": {
                            "m_Calls": []
                          },
                          "m_TypeName": "UnityEngine.UI.MaskableGraphic+CullStateChangedEvent, UnityEngine.UI, Version=1.0.0.0, Culture=neutral, PublicKeyToken=null"
                        },
                        "m_Sprite": {
                          "m_FileID": 124884,
                          "m_PathID": 0
                        },
                        "m_Type": 0,
                        "m_PreserveAspect": true,
                        "m_FillCenter": true,
                        "m_FillMethod": 4,
                        "m_FillAmount": 1.0,
                        "m_FillClockwise": true,
                        "m_FillOrigin": 0
                      },
                      "GameObjectRefs": {},
                      "ComponentRefs": {},
                      "SpriteRefs": {
                        "124884": "UIFactory3::Triangle"
                      }
                    }
                  ],
                  "Children": []
                }
              ]
            },
            {
              "Name": "BlockName",
              "Active": true,
              "TransformData": {
                "localPosition": {
                  "x": 0.0,
                  "y": 257.75,
                  "z": 0.0
                },
                "localRotation": {
                  "w": 1.0,
                  "x": 0.0,
                  "y": 0.0,
                  "z": 0.0,
                  "eulerAngles": {
                    "x": 0.0,
                    "y": 0.0,
                    "z": 0.0
                  }
                },
                "localScale": {
                  "x": 1.0,
                  "y": 1.0,
                  "z": 1.0
                },
                "anchorMin": {
                  "x": 0.0,
                  "y": 1.0
                },
                "anchorMax": {
                  "x": 0.0,
                  "y": 1.0
                },
                "pivot": {
                  "x": 0.5,
                  "y": 1.0
                },
                "anchoredPosition": {
                  "x": 70.0,
                  "y": 0.0
                },
                "sizeDelta": {
                  "x": 140.0,
                  "y": 37.5
                }
              },
              "ComponentData": [
                {
                  "Type": "UnityEngine.UI.Text, UnityEngine.UI, Version=1.0.0.0, Culture=neutral, PublicKeyToken=null",
                  "Values": {
                    "m_Material": {
                      "m_FileID": 0,
                      "m_PathID": 0
                    },
                    "m_Color": {
                      "r": 0.074509806931018829,
                      "g": 0.800000011920929,
                      "b": 0.70196080207824707,
                      "a": 1.0
                    },
                    "m_RaycastTarget": false,
                    "m_OnCullStateChanged": {
                      "m_PersistentCalls": {
                        "m_Calls": []
                      },
                      "m_TypeName": "UnityEngine.UI.MaskableGraphic+CullStateChangedEvent, UnityEngine.UI, Version=1.0.0.0, Culture=neutral, PublicKeyToken=null"
                    },
                    "m_FontData": {
                      "m_Font": {
                        "m_FileID": 7934,
                        "m_PathID": 0
                      },
                      "m_FontSize": 19,
                      "m_FontStyle": 0,
                      "m_BestFit": false,
                      "m_MinSize": 1,
                      "m_MaxSize": 40,
                      "m_Alignment": 4,
                      "m_AlignByGeometry": true,
                      "m_RichText": true,
                      "m_HorizontalOverflow": 0,
                      "m_VerticalOverflow": 1,
                      "m_LineSpacing": 1.2999999523162842
                    },
                    "m_Text": "STEERING HINGE STEERING HINGE"
                  },
                  "GameObjectRefs": {},
                  "ComponentRefs": {},
                  "SpriteRefs": {}
                }
              ],
              "Children": []
            },
            {
              "Name": "BlockID",
              "Active": true,
              "TransformData": {
                "localPosition": {
                  "x": 0.0,
                  "y": 210.25,
                  "z": 0.0
                },
                "localRotation": {
                  "w": 1.0,
                  "x": 0.0,
                  "y": 0.0,
                  "z": 0.0,
                  "eulerAngles": {
                    "x": 0.0,
                    "y": 0.0,
                    "z": 0.0
                  }
                },
                "localScale": {
                  "x": 1.0,
                  "y": 1.0,
                  "z": 1.0
                },
                "anchorMin": {
                  "x": 0.0,
                  "y": 1.0
                },
                "anchorMax": {
                  "x": 0.0,
                  "y": 1.0
                },
                "pivot": {
                  "x": 0.5,
                  "y": 1.0
                },
                "anchoredPosition": {
                  "x": 70.0,
                  "y": -47.5
                },
                "sizeDelta": {
                  "x": 140.0,
                  "y": 14.25
                }
              },
              "ComponentData": [
                {
                  "Type": "UnityEngine.UI.Text, UnityEngine.UI, Version=1.0.0.0, Culture=neutral, PublicKeyToken=null",
                  "Values": {
                    "m_Material": {
                      "m_FileID": 0,
                      "m_PathID": 0
                    },
                    "m_Color": {
                      "r": 1.0,
                      "g": 1.0,
                      "b": 1.0,
                      "a": 0.5
                    },
                    "m_RaycastTarget": false,
                    "m_OnCullStateChanged": {
                      "m_PersistentCalls": {
                        "m_Calls": []
                      },
                      "m_TypeName": "UnityEngine.UI.MaskableGraphic+CullStateChangedEvent, UnityEngine.UI, Version=1.0.0.0, Culture=neutral, PublicKeyToken=null"
                    },
                    "m_FontData": {
                      "m_Font": {
                        "m_FileID": 7934,
                        "m_PathID": 0
                      },
                      "m_FontSize": 14,
                      "m_FontStyle": 0,
                      "m_BestFit": false,
                      "m_MinSize": 1,
                      "m_MaxSize": 40,
                      "m_Alignment": 4,
                      "m_AlignByGeometry": true,
                      "m_RichText": true,
                      "m_HorizontalOverflow": 1,
                      "m_VerticalOverflow": 1,
                      "m_LineSpacing": 1.0
                    },
                    "m_Text": "28: SteeringHinge"
                  },
                  "GameObjectRefs": {},
                  "ComponentRefs": {},
                  "SpriteRefs": {}
                }
              ],
              "Children": []
            },
            {
              "Name": "BlockBreakStates",
              "Active": true,
              "TransformData": {
                "localPosition": {
                  "x": 0.0,
                  "y": 186.0,
                  "z": 0.0
                },
                "localRotation": {
                  "w": 1.0,
                  "x": 0.0,
                  "y": 0.0,
                  "z": 0.0,
                  "eulerAngles": {
                    "x": 0.0,
                    "y": 0.0,
                    "z": 0.0
                  }
                },
                "localScale": {
                  "x": 1.0,
                  "y": 1.0,
                  "z": 1.0
                },
                "anchorMin": {
                  "x": 0.0,
                  "y": 1.0
                },
                "anchorMax": {
                  "x": 0.0,
                  "y": 1.0
                },
                "pivot": {
                  "x": 0.5,
                  "y": 1.0
                },
                "anchoredPosition": {
                  "x": 70.0,
                  "y": -71.75
                },
                "sizeDelta": {
                  "x": 140.0,
                  "y": 12.5
                }
              },
              "ComponentData": [
                {
                  "Type": "UnityEngine.UI.LayoutElement, UnityEngine.UI, Version=1.0.0.0, Culture=neutral, PublicKeyToken=null",
                  "Values": {
                    "m_IgnoreLayout": false,
                    "m_MinWidth": -1.0,
                    "m_MinHeight": 12.5,
                    "m_PreferredWidth": -1.0,
                    "m_PreferredHeight": -1.0,
                    "m_FlexibleWidth": -1.0,
                    "m_FlexibleHeight": -1.0
                  },
                  "GameObjectRefs": {},
                  "ComponentRefs": {},
                  "SpriteRefs": {}
                }
              ],
              "Children": [
                {
                  "Name": "BreakFire",
                  "Active": true,
                  "TransformData": {
                    "localPosition": {
                      "x": -43.50007,
                      "y": -6.25,
                      "z": 0.0
                    },
                    "localRotation": {
                      "w": 1.0,
                      "x": 0.0,
                      "y": 0.0,
                      "z": 0.0,
                      "eulerAngles": {
                        "x": 0.0,
                        "y": 0.0,
                        "z": 0.0
                      }
                    },
                    "localScale": {
                      "x": 1.0,
                      "y": 1.0,
                      "z": 1.0
                    },
                    "anchorMin": {
                      "x": 0.5,
                      "y": 0.5
                    },
                    "anchorMax": {
                      "x": 0.5,
                      "y": 0.5
                    },
                    "pivot": {
                      "x": 0.5,
                      "y": 0.5
                    },
                    "anchoredPosition": {
                      "x": -43.50007,
                      "y": 0.0
                    },
                    "sizeDelta": {
                      "x": 24.0,
                      "y": 24.0001526
                    }
                  },
                  "ComponentData": [
                    {
                      "Type": "UnityEngine.UI.Image, UnityEngine.UI, Version=1.0.0.0, Culture=neutral, PublicKeyToken=null",
                      "Values": {
                        "m_Material": {
                          "m_FileID": 0,
                          "m_PathID": 0
                        },
                        "m_Color": {
                          "r": 1.0,
                          "g": 1.0,
                          "b": 1.0,
                          "a": 0.5
                        },
                        "m_RaycastTarget": false,
                        "m_OnCullStateChanged": {
                          "m_PersistentCalls": {
                            "m_Calls": []
                          },
                          "m_TypeName": "UnityEngine.UI.MaskableGraphic+CullStateChangedEvent, UnityEngine.UI, Version=1.0.0.0, Culture=neutral, PublicKeyToken=null"
                        },
                        "m_Sprite": {
                          "m_FileID": -106406,
                          "m_PathID": 0
                        },
                        "m_Type": 0,
                        "m_PreserveAspect": true,
                        "m_FillCenter": true,
                        "m_FillMethod": 4,
                        "m_FillAmount": 1.0,
                        "m_FillClockwise": true,
                        "m_FillOrigin": 0
                      },
                      "GameObjectRefs": {},
                      "ComponentRefs": {},
                      "SpriteRefs": {
                        "-106406": "UIFactory3::FireIcon"
                      }
                    }
                  ],
                  "Children": []
                },
                {
                  "Name": "BreakIce",
                  "Active": true,
                  "TransformData": {
                    "localPosition": {
                      "x": 0.0,
                      "y": -6.25,
                      "z": 0.0
                    },
                    "localRotation": {
                      "w": 1.0,
                      "x": 0.0,
                      "y": 0.0,
                      "z": 0.0,
                      "eulerAngles": {
                        "x": 0.0,
                        "y": 0.0,
                        "z": 0.0
                      }
                    },
                    "localScale": {
                      "x": 1.0,
                      "y": 1.0,
                      "z": 1.0
                    },
                    "anchorMin": {
                      "x": 0.5,
                      "y": 0.5
                    },
                    "anchorMax": {
                      "x": 0.5,
                      "y": 0.5
                    },
                    "pivot": {
                      "x": 0.5,
                      "y": 0.5
                    },
                    "anchoredPosition": {
                      "x": 0.0,
                      "y": 0.0
                    },
                    "sizeDelta": {
                      "x": 16.0,
                      "y": 16.0
                    }
                  },
                  "ComponentData": [
                    {
                      "Type": "UnityEngine.UI.Image, UnityEngine.UI, Version=1.0.0.0, Culture=neutral, PublicKeyToken=null",
                      "Values": {
                        "m_Material": {
                          "m_FileID": 0,
                          "m_PathID": 0
                        },
                        "m_Color": {
                          "r": 1.0,
                          "g": 1.0,
                          "b": 1.0,
                          "a": 0.5
                        },
                        "m_RaycastTarget": false,
                        "m_OnCullStateChanged": {
                          "m_PersistentCalls": {
                            "m_Calls": []
                          },
                          "m_TypeName": "UnityEngine.UI.MaskableGraphic+CullStateChangedEvent, UnityEngine.UI, Version=1.0.0.0, Culture=neutral, PublicKeyToken=null"
                        },
                        "m_Sprite": {
                          "m_FileID": -100302,
                          "m_PathID": 0
                        },
                        "m_Type": 0,
                        "m_PreserveAspect": true,
                        "m_FillCenter": true,
                        "m_FillMethod": 4,
                        "m_FillAmount": 1.0,
                        "m_FillClockwise": true,
                        "m_FillOrigin": 0
                      },
                      "GameObjectRefs": {},
                      "ComponentRefs": {},
                      "SpriteRefs": {
                        "-100302": "BlockTooltips::IceIcon"
                      }
                    }
                  ],
                  "Children": []
                },
                {
                  "Name": "Damage",
                  "Active": true,
                  "TransformData": {
                    "localPosition": {
                      "x": 41.00003,
                      "y": -6.25,
                      "z": 0.0
                    },
                    "localRotation": {
                      "w": 1.0,
                      "x": 0.0,
                      "y": 0.0,
                      "z": 0.0,
                      "eulerAngles": {
                        "x": 0.0,
                        "y": 0.0,
                        "z": 0.0
                      }
                    },
                    "localScale": {
                      "x": 1.0,
                      "y": 1.0,
                      "z": 1.0
                    },
                    "anchorMin": {
                      "x": 0.5,
                      "y": 0.5
                    },
                    "anchorMax": {
                      "x": 0.5,
                      "y": 0.5
                    },
                    "pivot": {
                      "x": 0.5,
                      "y": 0.5
                    },
                    "anchoredPosition": {
                      "x": 41.00003,
                      "y": 0.0
                    },
                    "sizeDelta": {
                      "x": 36.0000076,
                      "y": 24.0001526
                    }
                  },
                  "ComponentData": [
                    {
                      "Type": "UnityEngine.UI.HorizontalLayoutGroup, UnityEngine.UI, Version=1.0.0.0, Culture=neutral, PublicKeyToken=null",
                      "Values": {
                        "m_Padding": {
                          "m_Left": 0,
                          "m_Right": 0,
                          "m_Top": 0,
                          "m_Bottom": 0
                        },
                        "m_ChildAlignment": 0,
                        "m_Spacing": 0.0,
                        "m_ChildForceExpandWidth": true,
                        "m_ChildForceExpandHeight": true
                      },
                      "GameObjectRefs": {},
                      "ComponentRefs": {},
                      "SpriteRefs": {}
                    }
                  ],
                  "Children": [
                    {
                      "Name": "BreakDamageIcon",
                      "Active": true,
                      "TransformData": {
                        "localPosition": {
                          "x": 0.0,
                          "y": 0.0,
                          "z": 0.0
                        },
                        "localRotation": {
                          "w": 1.0,
                          "x": 0.0,
                          "y": 0.0,
                          "z": 0.0,
                          "eulerAngles": {
                            "x": 0.0,
                            "y": 0.0,
                            "z": 0.0
                          }
                        },
                        "localScale": {
                          "x": 1.0,
                          "y": 1.0,
                          "z": 1.0
                        },
                        "anchorMin": {
                          "x": 0.0,
                          "y": 1.0
                        },
                        "anchorMax": {
                          "x": 0.0,
                          "y": 1.0
                        },
                        "pivot": {
                          "x": 0.5,
                          "y": 0.5
                        },
                        "anchoredPosition": {
                          "x": 18.0000038,
                          "y": -12.0000763
                        },
                        "sizeDelta": {
                          "x": 36.0000076,
                          "y": 24.0001526
                        }
                      },
                      "ComponentData": [
                        {
                          "Type": "UnityEngine.UI.Image, UnityEngine.UI, Version=1.0.0.0, Culture=neutral, PublicKeyToken=null",
                          "Values": {
                            "m_Material": {
                              "m_FileID": 0,
                              "m_PathID": 0
                            },
                            "m_Color": {
                              "r": 1.0,
                              "g": 1.0,
                              "b": 1.0,
                              "a": 0.5
                            },
                            "m_RaycastTarget": false,
                            "m_OnCullStateChanged": {
                              "m_PersistentCalls": {
                                "m_Calls": []
                              },
                              "m_TypeName": "UnityEngine.UI.MaskableGraphic+CullStateChangedEvent, UnityEngine.UI, Version=1.0.0.0, Culture=neutral, PublicKeyToken=null"
                            },
                            "m_Sprite": {
                              "m_FileID": 128508,
                              "m_PathID": 0
                            },
                            "m_Type": 0,
                            "m_PreserveAspect": true,
                            "m_FillCenter": true,
                            "m_FillMethod": 4,
                            "m_FillAmount": 1.0,
                            "m_FillClockwise": true,
                            "m_FillOrigin": 0
                          },
                          "GameObjectRefs": {},
                          "ComponentRefs": {},
                          "SpriteRefs": {
                            "128508": "UIFactory3::ArmorBlocksIcon new"
                          }
                        }
                      ],
                      "Children": []
                    },
                    {
                      "Name": "BreakDamage",
                      "Active": false,
                      "TransformData": {
                        "localPosition": {
                          "x": 12.5000038,
                          "y": 0.0,
                          "z": 0.0
                        },
                        "localRotation": {
                          "w": 1.0,
                          "x": 0.0,
                          "y": 0.0,
                          "z": 0.0,
                          "eulerAngles": {
                            "x": 0.0,
                            "y": 0.0,
                            "z": 0.0
                          }
                        },
                        "localScale": {
                          "x": 1.0,
                          "y": 1.0,
                          "z": 1.0
                        },
                        "anchorMin": {
                          "x": 0.0,
                          "y": 1.0
                        },
                        "anchorMax": {
                          "x": 0.0,
                          "y": 1.0
                        },
                        "pivot": {
                          "x": 0.5,
                          "y": 0.5
                        },
                        "anchoredPosition": {
                          "x": 30.5000076,
                          "y": -12.0000763
                        },
                        "sizeDelta": {
                          "x": 10.9999695,
                          "y": 24.0001526
                        }
                      },
                      "ComponentData": [
                        {
                          "Type": "UnityEngine.UI.Text, UnityEngine.UI, Version=1.0.0.0, Culture=neutral, PublicKeyToken=null",
                          "Values": {
                            "m_Material": {
                              "m_FileID": 0,
                              "m_PathID": 0
                            },
                            "m_Color": {
                              "r": 1.0,
                              "g": 1.0,
                              "b": 1.0,
                              "a": 1.0
                            },
                            "m_RaycastTarget": false,
                            "m_OnCullStateChanged": {
                              "m_PersistentCalls": {
                                "m_Calls": []
                              },
                              "m_TypeName": "UnityEngine.UI.MaskableGraphic+CullStateChangedEvent, UnityEngine.UI, Version=1.0.0.0, Culture=neutral, PublicKeyToken=null"
                            },
                            "m_FontData": {
                              "m_Font": {
                                "m_FileID": 124900,
                                "m_PathID": 0
                              },
                              "m_FontSize": 16,
                              "m_FontStyle": 0,
                              "m_BestFit": false,
                              "m_MinSize": 1,
                              "m_MaxSize": 40,
                              "m_Alignment": 3,
                              "m_AlignByGeometry": true,
                              "m_RichText": true,
                              "m_HorizontalOverflow": 1,
                              "m_VerticalOverflow": 1,
                              "m_LineSpacing": 1.0
                            },
                            "m_Text": "4"
                          },
                          "GameObjectRefs": {},
                          "ComponentRefs": {},
                          "SpriteRefs": {}
                        },
                        {
                          "Type": "UnityEngine.UI.LayoutElement, UnityEngine.UI, Version=1.0.0.0, Culture=neutral, PublicKeyToken=null",
                          "Values": {
                            "m_IgnoreLayout": false,
                            "m_MinWidth": 11.0,
                            "m_MinHeight": -1.0,
                            "m_PreferredWidth": -1.0,
                            "m_PreferredHeight": -1.0,
                            "m_FlexibleWidth": -1.0,
                            "m_FlexibleHeight": -1.0
                          },
                          "GameObjectRefs": {},
                          "ComponentRefs": {},
                          "SpriteRefs": {}
                        }
                      ],
                      "Children": []
                    }
                  ]
                }
              ]
            },
            {
              "Name": "BlockProperties",
              "Active": true,
              "TransformData": {
                "localPosition": {
                  "x": 0.0,
                  "y": 163.5,
                  "z": 0.0
                },
                "localRotation": {
                  "w": 1.0,
                  "x": 0.0,
                  "y": 0.0,
                  "z": 0.0,
                  "eulerAngles": {
                    "x": 0.0,
                    "y": 0.0,
                    "z": 0.0
                  }
                },
                "localScale": {
                  "x": 1.0,
                  "y": 1.0,
                  "z": 1.0
                },
                "anchorMin": {
                  "x": 0.0,
                  "y": 1.0
                },
                "anchorMax": {
                  "x": 0.0,
                  "y": 1.0
                },
                "pivot": {
                  "x": 0.5,
                  "y": 1.0
                },
                "anchoredPosition": {
                  "x": 70.0,
                  "y": -94.25
                },
                "sizeDelta": {
                  "x": 140.0,
                  "y": 40.0
                }
              },
              "ComponentData": [
                {
                  "Type": "UnityEngine.UI.HorizontalLayoutGroup, UnityEngine.UI, Version=1.0.0.0, Culture=neutral, PublicKeyToken=null",
                  "Values": {
                    "m_Padding": {
                      "m_Left": 0,
                      "m_Right": 0,
                      "m_Top": 0,
                      "m_Bottom": 0
                    },
                    "m_ChildAlignment": 0,
                    "m_Spacing": 0.0,
                    "m_ChildForceExpandWidth": true,
                    "m_ChildForceExpandHeight": true
                  },
                  "GameObjectRefs": {},
                  "ComponentRefs": {},
                  "SpriteRefs": {}
                },
                {
                  "Type": "UnityEngine.UI.ContentSizeFitter, UnityEngine.UI, Version=1.0.0.0, Culture=neutral, PublicKeyToken=null",
                  "Values": {
                    "m_HorizontalFit": 0,
                    "m_VerticalFit": 1
                  },
                  "GameObjectRefs": {},
                  "ComponentRefs": {},
                  "SpriteRefs": {}
                }
              ],
              "Children": [
                {
                  "Name": "Friction",
                  "Active": true,
                  "TransformData": {
                    "localPosition": {
                      "x": -46.6666641,
                      "y": -20.0,
                      "z": 0.0
                    },
                    "localRotation": {
                      "w": 1.0,
                      "x": 0.0,
                      "y": 0.0,
                      "z": 0.0,
                      "eulerAngles": {
                        "x": 0.0,
                        "y": 0.0,
                        "z": 0.0
                      }
                    },
                    "localScale": {
                      "x": 1.0,
                      "y": 1.0,
                      "z": 1.0
                    },
                    "anchorMin": {
                      "x": 0.0,
                      "y": 1.0
                    },
                    "anchorMax": {
                      "x": 0.0,
                      "y": 1.0
                    },
                    "pivot": {
                      "x": 0.5,
                      "y": 0.5
                    },
                    "anchoredPosition": {
                      "x": 23.333334,
                      "y": -20.0
                    },
                    "sizeDelta": {
                      "x": 46.6666679,
                      "y": 40.0
                    }
                  },
                  "ComponentData": [
                    {
                      "Type": "UnityEngine.UI.LayoutElement, UnityEngine.UI, Version=1.0.0.0, Culture=neutral, PublicKeyToken=null",
                      "Values": {
                        "m_IgnoreLayout": false,
                        "m_MinWidth": -1.0,
                        "m_MinHeight": 40.0,
                        "m_PreferredWidth": -1.0,
                        "m_PreferredHeight": -1.0,
                        "m_FlexibleWidth": -1.0,
                        "m_FlexibleHeight": -1.0
                      },
                      "GameObjectRefs": {},
                      "ComponentRefs": {},
                      "SpriteRefs": {}
                    }
                  ],
                  "Children": [
                    {
                      "Name": "Icon",
                      "Active": true,
                      "TransformData": {
                        "localPosition": {
                          "x": -5.722046E-05,
                          "y": 20.0,
                          "z": 0.0
                        },
                        "localRotation": {
                          "w": 1.0,
                          "x": 0.0,
                          "y": 0.0,
                          "z": 0.0,
                          "eulerAngles": {
                            "x": 0.0,
                            "y": 0.0,
                            "z": 0.0
                          }
                        },
                        "localScale": {
                          "x": 1.0,
                          "y": 1.0,
                          "z": 1.0
                        },
                        "anchorMin": {
                          "x": 0.0,
                          "y": 1.0
                        },
                        "anchorMax": {
                          "x": 1.0,
                          "y": 1.0
                        },
                        "pivot": {
                          "x": 0.5,
                          "y": 1.0
                        },
                        "anchoredPosition": {
                          "x": -5.531311E-05,
                          "y": 0.0
                        },
                        "sizeDelta": {
                          "x": 0.0,
                          "y": 23.9733582
                        }
                      },
                      "ComponentData": [
                        {
                          "Type": "UnityEngine.UI.Image, UnityEngine.UI, Version=1.0.0.0, Culture=neutral, PublicKeyToken=null",
                          "Values": {
                            "m_Material": {
                              "m_FileID": 0,
                              "m_PathID": 0
                            },
                            "m_Color": {
                              "r": 1.0,
                              "g": 1.0,
                              "b": 1.0,
                              "a": 1.0
                            },
                            "m_RaycastTarget": false,
                            "m_OnCullStateChanged": {
                              "m_PersistentCalls": {
                                "m_Calls": []
                              },
                              "m_TypeName": "UnityEngine.UI.MaskableGraphic+CullStateChangedEvent, UnityEngine.UI, Version=1.0.0.0, Culture=neutral, PublicKeyToken=null"
                            },
                            "m_Sprite": {
                              "m_FileID": -100304,
                              "m_PathID": 0
                            },
                            "m_Type": 0,
                            "m_PreserveAspect": true,
                            "m_FillCenter": true,
                            "m_FillMethod": 4,
                            "m_FillAmount": 1.0,
                            "m_FillClockwise": true,
                            "m_FillOrigin": 0
                          },
                          "GameObjectRefs": {},
                          "ComponentRefs": {},
                          "SpriteRefs": {
                            "-100304": "BlockTooltips::FrictionIcon"
                          }
                        }
                      ],
                      "Children": []
                    },
                    {
                      "Name": "BlockFriction",
                      "Active": true,
                      "TransformData": {
                        "localPosition": {
                          "x": -5.531311E-05,
                          "y": -20.0,
                          "z": 0.0
                        },
                        "localRotation": {
                          "w": 1.0,
                          "x": 0.0,
                          "y": 0.0,
                          "z": 0.0,
                          "eulerAngles": {
                            "x": 0.0,
                            "y": 0.0,
                            "z": 0.0
                          }
                        },
                        "localScale": {
                          "x": 1.0,
                          "y": 1.0,
                          "z": 1.0
                        },
                        "anchorMin": {
                          "x": 0.0,
                          "y": 0.0
                        },
                        "anchorMax": {
                          "x": 1.0,
                          "y": 0.0
                        },
                        "pivot": {
                          "x": 0.5,
                          "y": 0.0
                        },
                        "anchoredPosition": {
                          "x": -5.340576E-05,
                          "y": 0.0
                        },
                        "sizeDelta": {
                          "x": -3.43322754E-05,
                          "y": 20.0
                        }
                      },
                      "ComponentData": [
                        {
                          "Type": "UnityEngine.UI.Text, UnityEngine.UI, Version=1.0.0.0, Culture=neutral, PublicKeyToken=null",
                          "Values": {
                            "m_Material": {
                              "m_FileID": 0,
                              "m_PathID": 0
                            },
                            "m_Color": {
                              "r": 1.0,
                              "g": 1.0,
                              "b": 1.0,
                              "a": 1.0
                            },
                            "m_RaycastTarget": false,
                            "m_OnCullStateChanged": {
                              "m_PersistentCalls": {
                                "m_Calls": []
                              },
                              "m_TypeName": "UnityEngine.UI.MaskableGraphic+CullStateChangedEvent, UnityEngine.UI, Version=1.0.0.0, Culture=neutral, PublicKeyToken=null"
                            },
                            "m_FontData": {
                              "m_Font": {
                                "m_FileID": 7934,
                                "m_PathID": 0
                              },
                              "m_FontSize": 16,
                              "m_FontStyle": 0,
                              "m_BestFit": false,
                              "m_MinSize": 1,
                              "m_MaxSize": 40,
                              "m_Alignment": 4,
                              "m_AlignByGeometry": true,
                              "m_RichText": true,
                              "m_HorizontalOverflow": 1,
                              "m_VerticalOverflow": 1,
                              "m_LineSpacing": 1.0
                            },
                            "m_Text": "0.6"
                          },
                          "GameObjectRefs": {},
                          "ComponentRefs": {},
                          "SpriteRefs": {}
                        },
                        {
                          "Type": "Besiege.UI.Bridge.LetterSpacing, Besiege.UI.Bridge, Version=1.0.0.0, Culture=neutral, PublicKeyToken=null",
                          "Values": {
                            "m_spacing": 0.0
                          },
                          "GameObjectRefs": {},
                          "ComponentRefs": {},
                          "SpriteRefs": {}
                        }
                      ],
                      "Children": []
                    }
                  ]
                },
                {
                  "Name": "Mass",
                  "Active": true,
                  "TransformData": {
                    "localPosition": {
                      "x": 0.0,
                      "y": -20.0,
                      "z": 0.0
                    },
                    "localRotation": {
                      "w": 1.0,
                      "x": 0.0,
                      "y": 0.0,
                      "z": 0.0,
                      "eulerAngles": {
                        "x": 0.0,
                        "y": 0.0,
                        "z": 0.0
                      }
                    },
                    "localScale": {
                      "x": 1.0,
                      "y": 1.0,
                      "z": 1.0
                    },
                    "anchorMin": {
                      "x": 0.0,
                      "y": 1.0
                    },
                    "anchorMax": {
                      "x": 0.0,
                      "y": 1.0
                    },
                    "pivot": {
                      "x": 0.5,
                      "y": 0.5
                    },
                    "anchoredPosition": {
                      "x": 70.0,
                      "y": -20.0
                    },
                    "sizeDelta": {
                      "x": 46.6666679,
                      "y": 40.0
                    }
                  },
                  "ComponentData": [
                    {
                      "Type": "UnityEngine.UI.LayoutElement, UnityEngine.UI, Version=1.0.0.0, Culture=neutral, PublicKeyToken=null",
                      "Values": {
                        "m_IgnoreLayout": false,
                        "m_MinWidth": -1.0,
                        "m_MinHeight": 40.0,
                        "m_PreferredWidth": -1.0,
                        "m_PreferredHeight": -1.0,
                        "m_FlexibleWidth": -1.0,
                        "m_FlexibleHeight": -1.0
                      },
                      "GameObjectRefs": {},
                      "ComponentRefs": {},
                      "SpriteRefs": {}
                    }
                  ],
                  "Children": [
                    {
                      "Name": "Icon",
                      "Active": true,
                      "TransformData": {
                        "localPosition": {
                          "x": 0.0,
                          "y": 23.75,
                          "z": 0.0
                        },
                        "localRotation": {
                          "w": 1.0,
                          "x": 0.0,
                          "y": 0.0,
                          "z": 0.0,
                          "eulerAngles": {
                            "x": 0.0,
                            "y": 0.0,
                            "z": 0.0
                          }
                        },
                        "localScale": {
                          "x": 1.0,
                          "y": 1.0,
                          "z": 1.0
                        },
                        "anchorMin": {
                          "x": 0.0,
                          "y": 1.0
                        },
                        "anchorMax": {
                          "x": 1.0,
                          "y": 1.0
                        },
                        "pivot": {
                          "x": 0.5,
                          "y": 1.0
                        },
                        "anchoredPosition": {
                          "x": 0.0,
                          "y": 3.75
                        },
                        "sizeDelta": {
                          "x": -3.81469727E-05,
                          "y": 29.7233276
                        }
                      },
                      "ComponentData": [
                        {
                          "Type": "UnityEngine.UI.Image, UnityEngine.UI, Version=1.0.0.0, Culture=neutral, PublicKeyToken=null",
                          "Values": {
                            "m_Material": {
                              "m_FileID": 0,
                              "m_PathID": 0
                            },
                            "m_Color": {
                              "r": 1.0,
                              "g": 1.0,
                              "b": 1.0,
                              "a": 1.0
                            },
                            "m_RaycastTarget": false,
                            "m_OnCullStateChanged": {
                              "m_PersistentCalls": {
                                "m_Calls": []
                              },
                              "m_TypeName": "UnityEngine.UI.MaskableGraphic+CullStateChangedEvent, UnityEngine.UI, Version=1.0.0.0, Culture=neutral, PublicKeyToken=null"
                            },
                            "m_Sprite": {
                              "m_FileID": 128546,
                              "m_PathID": 0
                            },
                            "m_Type": 0,
                            "m_PreserveAspect": true,
                            "m_FillCenter": true,
                            "m_FillMethod": 4,
                            "m_FillAmount": 1.0,
                            "m_FillClockwise": true,
                            "m_FillOrigin": 0
                          },
                          "GameObjectRefs": {},
                          "ComponentRefs": {},
                          "SpriteRefs": {
                            "128546": "UIFactory3::WeightIcon new"
                          }
                        }
                      ],
                      "Children": []
                    },
                    {
                      "Name": "BlockMass",
                      "Active": true,
                      "TransformData": {
                        "localPosition": {
                          "x": 0.0,
                          "y": -20.0,
                          "z": 0.0
                        },
                        "localRotation": {
                          "w": 1.0,
                          "x": 0.0,
                          "y": 0.0,
                          "z": 0.0,
                          "eulerAngles": {
                            "x": 0.0,
                            "y": 0.0,
                            "z": 0.0
                          }
                        },
                        "localScale": {
                          "x": 1.0,
                          "y": 1.0,
                          "z": 1.0
                        },
                        "anchorMin": {
                          "x": 0.0,
                          "y": 0.0
                        },
                        "anchorMax": {
                          "x": 1.0,
                          "y": 0.0
                        },
                        "pivot": {
                          "x": 0.5,
                          "y": 0.0
                        },
                        "anchoredPosition": {
                          "x": 0.0,
                          "y": 0.0
                        },
                        "sizeDelta": {
                          "x": 0.0,
                          "y": 20.0
                        }
                      },
                      "ComponentData": [
                        {
                          "Type": "UnityEngine.UI.Text, UnityEngine.UI, Version=1.0.0.0, Culture=neutral, PublicKeyToken=null",
                          "Values": {
                            "m_Material": {
                              "m_FileID": 0,
                              "m_PathID": 0
                            },
                            "m_Color": {
                              "r": 1.0,
                              "g": 1.0,
                              "b": 1.0,
                              "a": 1.0
                            },
                            "m_RaycastTarget": false,
                            "m_OnCullStateChanged": {
                              "m_PersistentCalls": {
                                "m_Calls": []
                              },
                              "m_TypeName": "UnityEngine.UI.MaskableGraphic+CullStateChangedEvent, UnityEngine.UI, Version=1.0.0.0, Culture=neutral, PublicKeyToken=null"
                            },
                            "m_FontData": {
                              "m_Font": {
                                "m_FileID": 7934,
                                "m_PathID": 0
                              },
                              "m_FontSize": 16,
                              "m_FontStyle": 0,
                              "m_BestFit": false,
                              "m_MinSize": 1,
                              "m_MaxSize": 40,
                              "m_Alignment": 4,
                              "m_AlignByGeometry": true,
                              "m_RichText": true,
                              "m_HorizontalOverflow": 1,
                              "m_VerticalOverflow": 1,
                              "m_LineSpacing": 1.0
                            },
                            "m_Text": "1.0"
                          },
                          "GameObjectRefs": {},
                          "ComponentRefs": {},
                          "SpriteRefs": {}
                        },
                        {
                          "Type": "Besiege.UI.Bridge.LetterSpacing, Besiege.UI.Bridge, Version=1.0.0.0, Culture=neutral, PublicKeyToken=null",
                          "Values": {
                            "m_spacing": 0.0
                          },
                          "GameObjectRefs": {},
                          "ComponentRefs": {},
                          "SpriteRefs": {}
                        }
                      ],
                      "Children": []
                    }
                  ]
                },
                {
                  "Name": "Drag",
                  "Active": true,
                  "TransformData": {
                    "localPosition": {
                      "x": 46.66667,
                      "y": -20.0,
                      "z": 0.0
                    },
                    "localRotation": {
                      "w": 1.0,
                      "x": 0.0,
                      "y": 0.0,
                      "z": 0.0,
                      "eulerAngles": {
                        "x": 0.0,
                        "y": 0.0,
                        "z": 0.0
                      }
                    },
                    "localScale": {
                      "x": 1.0,
                      "y": 1.0,
                      "z": 1.0
                    },
                    "anchorMin": {
                      "x": 0.0,
                      "y": 1.0
                    },
                    "anchorMax": {
                      "x": 0.0,
                      "y": 1.0
                    },
                    "pivot": {
                      "x": 0.5,
                      "y": 0.5
                    },
                    "anchoredPosition": {
                      "x": 116.666672,
                      "y": -20.0
                    },
                    "sizeDelta": {
                      "x": 46.6666679,
                      "y": 40.0
                    }
                  },
                  "ComponentData": [
                    {
                      "Type": "UnityEngine.UI.LayoutElement, UnityEngine.UI, Version=1.0.0.0, Culture=neutral, PublicKeyToken=null",
                      "Values": {
                        "m_IgnoreLayout": false,
                        "m_MinWidth": -1.0,
                        "m_MinHeight": 40.0,
                        "m_PreferredWidth": -1.0,
                        "m_PreferredHeight": -1.0,
                        "m_FlexibleWidth": -1.0,
                        "m_FlexibleHeight": -1.0
                      },
                      "GameObjectRefs": {},
                      "ComponentRefs": {},
                      "SpriteRefs": {}
                    }
                  ],
                  "Children": [
                    {
                      "Name": "Icon",
                      "Active": true,
                      "TransformData": {
                        "localPosition": {
                          "x": -4.196167E-05,
                          "y": 20.0,
                          "z": 0.0
                        },
                        "localRotation": {
                          "w": 1.0,
                          "x": 0.0,
                          "y": 0.0,
                          "z": 0.0,
                          "eulerAngles": {
                            "x": 0.0,
                            "y": 0.0,
                            "z": 0.0
                          }
                        },
                        "localScale": {
                          "x": 1.0,
                          "y": 1.0,
                          "z": 1.0
                        },
                        "anchorMin": {
                          "x": 0.0,
                          "y": 1.0
                        },
                        "anchorMax": {
                          "x": 1.0,
                          "y": 1.0
                        },
                        "pivot": {
                          "x": 0.5,
                          "y": 1.0
                        },
                        "anchoredPosition": {
                          "x": -4.196167E-05,
                          "y": 0.0
                        },
                        "sizeDelta": {
                          "x": 0.0,
                          "y": 23.0
                        }
                      },
                      "ComponentData": [
                        {
                          "Type": "UnityEngine.UI.Image, UnityEngine.UI, Version=1.0.0.0, Culture=neutral, PublicKeyToken=null",
                          "Values": {
                            "m_Material": {
                              "m_FileID": 0,
                              "m_PathID": 0
                            },
                            "m_Color": {
                              "r": 1.0,
                              "g": 1.0,
                              "b": 1.0,
                              "a": 1.0
                            },
                            "m_RaycastTarget": false,
                            "m_OnCullStateChanged": {
                              "m_PersistentCalls": {
                                "m_Calls": []
                              },
                              "m_TypeName": "UnityEngine.UI.MaskableGraphic+CullStateChangedEvent, UnityEngine.UI, Version=1.0.0.0, Culture=neutral, PublicKeyToken=null"
                            },
                            "m_Sprite": {
                              "m_FileID": -106352,
                              "m_PathID": 0
                            },
                            "m_Type": 0,
                            "m_PreserveAspect": true,
                            "m_FillCenter": true,
                            "m_FillMethod": 4,
                            "m_FillAmount": 1.0,
                            "m_FillClockwise": true,
                            "m_FillOrigin": 0
                          },
                          "GameObjectRefs": {},
                          "ComponentRefs": {},
                          "SpriteRefs": {
                            "-106352": "UIFactory3::MagicIcon"
                          }
                        }
                      ],
                      "Children": []
                    },
                    {
                      "Name": "BlockDrag",
                      "Active": true,
                      "TransformData": {
                        "localPosition": {
                          "x": 0.0,
                          "y": -20.0,
                          "z": 0.0
                        },
                        "localRotation": {
                          "w": 1.0,
                          "x": 0.0,
                          "y": 0.0,
                          "z": 0.0,
                          "eulerAngles": {
                            "x": 0.0,
                            "y": 0.0,
                            "z": 0.0
                          }
                        },
                        "localScale": {
                          "x": 1.0,
                          "y": 1.0,
                          "z": 1.0
                        },
                        "anchorMin": {
                          "x": 0.0,
                          "y": 0.0
                        },
                        "anchorMax": {
                          "x": 1.0,
                          "y": 0.0
                        },
                        "pivot": {
                          "x": 0.5,
                          "y": 0.0
                        },
                        "anchoredPosition": {
                          "x": 0.0,
                          "y": 0.0
                        },
                        "sizeDelta": {
                          "x": 0.0,
                          "y": 20.0
                        }
                      },
                      "ComponentData": [
                        {
                          "Type": "UnityEngine.UI.Text, UnityEngine.UI, Version=1.0.0.0, Culture=neutral, PublicKeyToken=null",
                          "Values": {
                            "m_Material": {
                              "m_FileID": 0,
                              "m_PathID": 0
                            },
                            "m_Color": {
                              "r": 1.0,
                              "g": 1.0,
                              "b": 1.0,
                              "a": 1.0
                            },
                            "m_RaycastTarget": false,
                            "m_OnCullStateChanged": {
                              "m_PersistentCalls": {
                                "m_Calls": []
                              },
                              "m_TypeName": "UnityEngine.UI.MaskableGraphic+CullStateChangedEvent, UnityEngine.UI, Version=1.0.0.0, Culture=neutral, PublicKeyToken=null"
                            },
                            "m_FontData": {
                              "m_Font": {
                                "m_FileID": 7934,
                                "m_PathID": 0
                              },
                              "m_FontSize": 16,
                              "m_FontStyle": 0,
                              "m_BestFit": false,
                              "m_MinSize": 1,
                              "m_MaxSize": 40,
                              "m_Alignment": 4,
                              "m_AlignByGeometry": true,
                              "m_RichText": true,
                              "m_HorizontalOverflow": 1,
                              "m_VerticalOverflow": 1,
                              "m_LineSpacing": 1.0
                            },
                            "m_Text": "0.2"
                          },
                          "GameObjectRefs": {},
                          "ComponentRefs": {},
                          "SpriteRefs": {}
                        },
                        {
                          "Type": "Besiege.UI.Bridge.LetterSpacing, Besiege.UI.Bridge, Version=1.0.0.0, Culture=neutral, PublicKeyToken=null",
                          "Values": {
                            "m_spacing": 0.0
                          },
                          "GameObjectRefs": {},
                          "ComponentRefs": {},
                          "SpriteRefs": {}
                        }
                      ],
                      "Children": []
                    }
                  ]
                }
              ]
            },
            {
              "Name": "BreakForce1",
              "Active": true,
              "TransformData": {
                "localPosition": {
                  "x": 0.0,
                  "y": 113.5,
                  "z": 0.0
                },
                "localRotation": {
                  "w": 1.0,
                  "x": 0.0,
                  "y": 0.0,
                  "z": 0.0,
                  "eulerAngles": {
                    "x": 0.0,
                    "y": 0.0,
                    "z": 0.0
                  }
                },
                "localScale": {
                  "x": 1.0,
                  "y": 1.0,
                  "z": 1.0
                },
                "anchorMin": {
                  "x": 0.0,
                  "y": 1.0
                },
                "anchorMax": {
                  "x": 0.0,
                  "y": 1.0
                },
                "pivot": {
                  "x": 0.5,
                  "y": 1.0
                },
                "anchoredPosition": {
                  "x": 70.0,
                  "y": -144.25
                },
                "sizeDelta": {
                  "x": 140.0,
                  "y": 20.0
                }
              },
              "ComponentData": [
                {
                  "Type": "UnityEngine.UI.LayoutElement, UnityEngine.UI, Version=1.0.0.0, Culture=neutral, PublicKeyToken=null",
                  "Values": {
                    "m_IgnoreLayout": false,
                    "m_MinWidth": -1.0,
                    "m_MinHeight": 20.0,
                    "m_PreferredWidth": -1.0,
                    "m_PreferredHeight": -1.0,
                    "m_FlexibleWidth": -1.0,
                    "m_FlexibleHeight": -1.0
                  },
                  "GameObjectRefs": {},
                  "ComponentRefs": {},
                  "SpriteRefs": {}
                }
              ],
              "Children": [
                {
                  "Name": "BlockBreakForce1Icon",
                  "Active": true,
                  "TransformData": {
                    "localPosition": {
                      "x": -34.9999962,
                      "y": -10.0,
                      "z": 0.0
                    },
                    "localRotation": {
                      "w": 1.0,
                      "x": 0.0,
                      "y": 0.0,
                      "z": 0.0,
                      "eulerAngles": {
                        "x": 0.0,
                        "y": 0.0,
                        "z": 0.0
                      }
                    },
                    "localScale": {
                      "x": 1.0,
                      "y": 1.0,
                      "z": 1.0
                    },
                    "anchorMin": {
                      "x": 0.0,
                      "y": 0.5
                    },
                    "anchorMax": {
                      "x": 0.5,
                      "y": 0.5
                    },
                    "pivot": {
                      "x": 0.5,
                      "y": 0.5
                    },
                    "anchoredPosition": {
                      "x": 7.62939453E-06,
                      "y": 0.0
                    },
                    "sizeDelta": {
                      "x": 3.81469727E-05,
                      "y": 30.0
                    }
                  },
                  "ComponentData": [
                    {
                      "Type": "UnityEngine.UI.Image, UnityEngine.UI, Version=1.0.0.0, Culture=neutral, PublicKeyToken=null",
                      "Values": {
                        "m_Material": {
                          "m_FileID": 0,
                          "m_PathID": 0
                        },
                        "m_Color": {
                          "r": 1.0,
                          "g": 0.25,
                          "b": 0.25,
                          "a": 1.0
                        },
                        "m_RaycastTarget": false,
                        "m_OnCullStateChanged": {
                          "m_PersistentCalls": {
                            "m_Calls": []
                          },
                          "m_TypeName": "UnityEngine.UI.MaskableGraphic+CullStateChangedEvent, UnityEngine.UI, Version=1.0.0.0, Culture=neutral, PublicKeyToken=null"
                        },
                        "m_Sprite": {
                          "m_FileID": 128556,
                          "m_PathID": 0
                        },
                        "m_Type": 0,
                        "m_PreserveAspect": true,
                        "m_FillCenter": true,
                        "m_FillMethod": 4,
                        "m_FillAmount": 1.0,
                        "m_FillClockwise": true,
                        "m_FillOrigin": 0
                      },
                      "GameObjectRefs": {},
                      "ComponentRefs": {},
                      "SpriteRefs": {
                        "128556": "UIFactory3::IntersectIcon new"
                      }
                    }
                  ],
                  "Children": []
                },
                {
                  "Name": "BlockBreakForce1",
                  "Active": true,
                  "TransformData": {
                    "localPosition": {
                      "x": 34.9999542,
                      "y": -10.0,
                      "z": 0.0
                    },
                    "localRotation": {
                      "w": 1.0,
                      "x": 0.0,
                      "y": 0.0,
                      "z": 0.0,
                      "eulerAngles": {
                        "x": 0.0,
                        "y": 0.0,
                        "z": 0.0
                      }
                    },
                    "localScale": {
                      "x": 1.0,
                      "y": 1.0,
                      "z": 1.0
                    },
                    "anchorMin": {
                      "x": 1.0,
                      "y": 0.0
                    },
                    "anchorMax": {
                      "x": 1.0,
                      "y": 1.0
                    },
                    "pivot": {
                      "x": 0.5,
                      "y": 0.5
                    },
                    "anchoredPosition": {
                      "x": -35.0000458,
                      "y": 0.0
                    },
                    "sizeDelta": {
                      "x": 70.00004,
                      "y": 0.0
                    }
                  },
                  "ComponentData": [
                    {
                      "Type": "UnityEngine.UI.Text, UnityEngine.UI, Version=1.0.0.0, Culture=neutral, PublicKeyToken=null",
                      "Values": {
                        "m_Material": {
                          "m_FileID": 0,
                          "m_PathID": 0
                        },
                        "m_Color": {
                          "r": 1.0,
                          "g": 1.0,
                          "b": 1.0,
                          "a": 1.0
                        },
                        "m_RaycastTarget": false,
                        "m_OnCullStateChanged": {
                          "m_PersistentCalls": {
                            "m_Calls": []
                          },
                          "m_TypeName": "UnityEngine.UI.MaskableGraphic+CullStateChangedEvent, UnityEngine.UI, Version=1.0.0.0, Culture=neutral, PublicKeyToken=null"
                        },
                        "m_FontData": {
                          "m_Font": {
                            "m_FileID": 7934,
                            "m_PathID": 0
                          },
                          "m_FontSize": 16,
                          "m_FontStyle": 0,
                          "m_BestFit": false,
                          "m_MinSize": 1,
                          "m_MaxSize": 40,
                          "m_Alignment": 4,
                          "m_AlignByGeometry": true,
                          "m_RichText": true,
                          "m_HorizontalOverflow": 1,
                          "m_VerticalOverflow": 1,
                          "m_LineSpacing": 1.0
                        },
                        "m_Text": "15600"
                      },
                      "GameObjectRefs": {},
                      "ComponentRefs": {},
                      "SpriteRefs": {}
                    },
                    {
                      "Type": "Besiege.UI.Bridge.LetterSpacing, Besiege.UI.Bridge, Version=1.0.0.0, Culture=neutral, PublicKeyToken=null",
                      "Values": {
                        "m_spacing": 0.0
                      },
                      "GameObjectRefs": {},
                      "ComponentRefs": {},
                      "SpriteRefs": {}
                    }
                  ],
                  "Children": []
                }
              ]
            },
            {
              "Name": "BreakForce2",
              "Active": true,
              "TransformData": {
                "localPosition": {
                  "x": 0.0,
                  "y": 83.5,
                  "z": 0.0
                },
                "localRotation": {
                  "w": 1.0,
                  "x": 0.0,
                  "y": 0.0,
                  "z": 0.0,
                  "eulerAngles": {
                    "x": 0.0,
                    "y": 0.0,
                    "z": 0.0
                  }
                },
                "localScale": {
                  "x": 1.0,
                  "y": 1.0,
                  "z": 1.0
                },
                "anchorMin": {
                  "x": 0.0,
                  "y": 1.0
                },
                "anchorMax": {
                  "x": 0.0,
                  "y": 1.0
                },
                "pivot": {
                  "x": 0.5,
                  "y": 1.0
                },
                "anchoredPosition": {
                  "x": 70.0,
                  "y": -174.25
                },
                "sizeDelta": {
                  "x": 140.0,
                  "y": 20.0
                }
              },
              "ComponentData": [
                {
                  "Type": "UnityEngine.UI.LayoutElement, UnityEngine.UI, Version=1.0.0.0, Culture=neutral, PublicKeyToken=null",
                  "Values": {
                    "m_IgnoreLayout": false,
                    "m_MinWidth": -1.0,
                    "m_MinHeight": 20.0,
                    "m_PreferredWidth": -1.0,
                    "m_PreferredHeight": -1.0,
                    "m_FlexibleWidth": -1.0,
                    "m_FlexibleHeight": -1.0
                  },
                  "GameObjectRefs": {},
                  "ComponentRefs": {},
                  "SpriteRefs": {}
                }
              ],
              "Children": [
                {
                  "Name": "BlockBreakForce2Icon",
                  "Active": true,
                  "TransformData": {
                    "localPosition": {
                      "x": -34.9999962,
                      "y": -10.0,
                      "z": 0.0
                    },
                    "localRotation": {
                      "w": 1.0,
                      "x": 0.0,
                      "y": 0.0,
                      "z": 0.0,
                      "eulerAngles": {
                        "x": 0.0,
                        "y": 0.0,
                        "z": 0.0
                      }
                    },
                    "localScale": {
                      "x": 1.0,
                      "y": 1.0,
                      "z": 1.0
                    },
                    "anchorMin": {
                      "x": 0.0,
                      "y": 0.5
                    },
                    "anchorMax": {
                      "x": 0.5,
                      "y": 0.5
                    },
                    "pivot": {
                      "x": 0.5,
                      "y": 0.5
                    },
                    "anchoredPosition": {
                      "x": 7.62939453E-06,
                      "y": 0.0
                    },
                    "sizeDelta": {
                      "x": 3.81469727E-05,
                      "y": 30.0
                    }
                  },
                  "ComponentData": [
                    {
                      "Type": "UnityEngine.UI.Image, UnityEngine.UI, Version=1.0.0.0, Culture=neutral, PublicKeyToken=null",
                      "Values": {
                        "m_Material": {
                          "m_FileID": 0,
                          "m_PathID": 0
                        },
                        "m_Color": {
                          "r": 1.0,
                          "g": 0.75,
                          "b": 0.0,
                          "a": 1.0
                        },
                        "m_RaycastTarget": false,
                        "m_OnCullStateChanged": {
                          "m_PersistentCalls": {
                            "m_Calls": []
                          },
                          "m_TypeName": "UnityEngine.UI.MaskableGraphic+CullStateChangedEvent, UnityEngine.UI, Version=1.0.0.0, Culture=neutral, PublicKeyToken=null"
                        },
                        "m_Sprite": {
                          "m_FileID": 128556,
                          "m_PathID": 0
                        },
                        "m_Type": 0,
                        "m_PreserveAspect": true,
                        "m_FillCenter": true,
                        "m_FillMethod": 4,
                        "m_FillAmount": 1.0,
                        "m_FillClockwise": true,
                        "m_FillOrigin": 0
                      },
                      "GameObjectRefs": {},
                      "ComponentRefs": {},
                      "SpriteRefs": {
                        "128556": "UIFactory3::IntersectIcon new"
                      }
                    }
                  ],
                  "Children": []
                },
                {
                  "Name": "BlockBreakForce2",
                  "Active": true,
                  "TransformData": {
                    "localPosition": {
                      "x": 34.9999542,
                      "y": -10.0,
                      "z": 0.0
                    },
                    "localRotation": {
                      "w": 1.0,
                      "x": 0.0,
                      "y": 0.0,
                      "z": 0.0,
                      "eulerAngles": {
                        "x": 0.0,
                        "y": 0.0,
                        "z": 0.0
                      }
                    },
                    "localScale": {
                      "x": 1.0,
                      "y": 1.0,
                      "z": 1.0
                    },
                    "anchorMin": {
                      "x": 1.0,
                      "y": 0.0
                    },
                    "anchorMax": {
                      "x": 1.0,
                      "y": 1.0
                    },
                    "pivot": {
                      "x": 0.5,
                      "y": 0.5
                    },
                    "anchoredPosition": {
                      "x": -35.0000458,
                      "y": 0.0
                    },
                    "sizeDelta": {
                      "x": 70.00004,
                      "y": 0.0
                    }
                  },
                  "ComponentData": [
                    {
                      "Type": "UnityEngine.UI.Text, UnityEngine.UI, Version=1.0.0.0, Culture=neutral, PublicKeyToken=null",
                      "Values": {
                        "m_Material": {
                          "m_FileID": 0,
                          "m_PathID": 0
                        },
                        "m_Color": {
                          "r": 1.0,
                          "g": 1.0,
                          "b": 1.0,
                          "a": 1.0
                        },
                        "m_RaycastTarget": false,
                        "m_OnCullStateChanged": {
                          "m_PersistentCalls": {
                            "m_Calls": []
                          },
                          "m_TypeName": "UnityEngine.UI.MaskableGraphic+CullStateChangedEvent, UnityEngine.UI, Version=1.0.0.0, Culture=neutral, PublicKeyToken=null"
                        },
                        "m_FontData": {
                          "m_Font": {
                            "m_FileID": 7934,
                            "m_PathID": 0
                          },
                          "m_FontSize": 16,
                          "m_FontStyle": 0,
                          "m_BestFit": false,
                          "m_MinSize": 1,
                          "m_MaxSize": 40,
                          "m_Alignment": 4,
                          "m_AlignByGeometry": true,
                          "m_RichText": true,
                          "m_HorizontalOverflow": 1,
                          "m_VerticalOverflow": 1,
                          "m_LineSpacing": 1.0
                        },
                        "m_Text": "35000"
                      },
                      "GameObjectRefs": {},
                      "ComponentRefs": {},
                      "SpriteRefs": {}
                    },
                    {
                      "Type": "Besiege.UI.Bridge.LetterSpacing, Besiege.UI.Bridge, Version=1.0.0.0, Culture=neutral, PublicKeyToken=null",
                      "Values": {
                        "m_spacing": 0.0
                      },
                      "GameObjectRefs": {},
                      "ComponentRefs": {},
                      "SpriteRefs": {}
                    }
                  ],
                  "Children": []
                }
              ]
            },
            {
              "Name": "BlockDescription",
              "Active": true,
              "TransformData": {
                "localPosition": {
                  "x": 0.0,
                  "y": 53.5,
                  "z": 0.0
                },
                "localRotation": {
                  "w": 1.0,
                  "x": 0.0,
                  "y": 0.0,
                  "z": 0.0,
                  "eulerAngles": {
                    "x": 0.0,
                    "y": 0.0,
                    "z": 0.0
                  }
                },
                "localScale": {
                  "x": 1.0,
                  "y": 1.0,
                  "z": 1.0
                },
                "anchorMin": {
                  "x": 0.0,
                  "y": 1.0
                },
                "anchorMax": {
                  "x": 0.0,
                  "y": 1.0
                },
                "pivot": {
                  "x": 0.5,
                  "y": 1.0
                },
                "anchoredPosition": {
                  "x": 70.0,
                  "y": -204.25
                },
                "sizeDelta": {
                  "x": 140.0,
                  "y": 14.25
                }
              },
              "ComponentData": [
                {
                  "Type": "UnityEngine.UI.Text, UnityEngine.UI, Version=1.0.0.0, Culture=neutral, PublicKeyToken=null",
                  "Values": {
                    "m_Material": {
                      "m_FileID": 0,
                      "m_PathID": 0
                    },
                    "m_Color": {
                      "r": 1.0,
                      "g": 1.0,
                      "b": 1.0,
                      "a": 1.0
                    },
                    "m_RaycastTarget": false,
                    "m_OnCullStateChanged": {
                      "m_PersistentCalls": {
                        "m_Calls": []
                      },
                      "m_TypeName": "UnityEngine.UI.MaskableGraphic+CullStateChangedEvent, UnityEngine.UI, Version=1.0.0.0, Culture=neutral, PublicKeyToken=null"
                    },
                    "m_FontData": {
                      "m_Font": {
                        "m_FileID": 7934,
                        "m_PathID": 0
                      },
                      "m_FontSize": 14,
                      "m_FontStyle": 0,
                      "m_BestFit": false,
                      "m_MinSize": 1,
                      "m_MaxSize": 40,
                      "m_Alignment": 4,
                      "m_AlignByGeometry": true,
                      "m_RichText": true,
                      "m_HorizontalOverflow": 0,
                      "m_VerticalOverflow": 1,
                      "m_LineSpacing": 1.2999999523162842
                    },
                    "m_Text": "<color=grey>CONTROL WITH</color> [◁] [▷]"
                  },
                  "GameObjectRefs": {},
                  "ComponentRefs": {},
                  "SpriteRefs": {}
                }
              ],
              "Children": []
            },
            {
              "Name": "BlockFlip",
              "Active": true,
              "TransformData": {
                "localPosition": {
                  "x": 0.0,
                  "y": 29.25,
                  "z": 0.0
                },
                "localRotation": {
                  "w": 1.0,
                  "x": 0.0,
                  "y": 0.0,
                  "z": 0.0,
                  "eulerAngles": {
                    "x": 0.0,
                    "y": 0.0,
                    "z": 0.0
                  }
                },
                "localScale": {
                  "x": 1.0,
                  "y": 1.0,
                  "z": 1.0
                },
                "anchorMin": {
                  "x": 0.0,
                  "y": 1.0
                },
                "anchorMax": {
                  "x": 0.0,
                  "y": 1.0
                },
                "pivot": {
                  "x": 0.5,
                  "y": 1.0
                },
                "anchoredPosition": {
                  "x": 70.0,
                  "y": -228.5
                },
                "sizeDelta": {
                  "x": 140.0,
                  "y": 29.25
                }
              },
              "ComponentData": [
                {
                  "Type": "UnityEngine.UI.Text, UnityEngine.UI, Version=1.0.0.0, Culture=neutral, PublicKeyToken=null",
                  "Values": {
                    "m_Material": {
                      "m_FileID": 0,
                      "m_PathID": 0
                    },
                    "m_Color": {
                      "r": 1.0,
                      "g": 1.0,
                      "b": 1.0,
                      "a": 1.0
                    },
                    "m_RaycastTarget": false,
                    "m_OnCullStateChanged": {
                      "m_PersistentCalls": {
                        "m_Calls": []
                      },
                      "m_TypeName": "UnityEngine.UI.MaskableGraphic+CullStateChangedEvent, UnityEngine.UI, Version=1.0.0.0, Culture=neutral, PublicKeyToken=null"
                    },
                    "m_FontData": {
                      "m_Font": {
                        "m_FileID": 7934,
                        "m_PathID": 0
                      },
                      "m_FontSize": 14,
                      "m_FontStyle": 0,
                      "m_BestFit": false,
                      "m_MinSize": 1,
                      "m_MaxSize": 40,
                      "m_Alignment": 4,
                      "m_AlignByGeometry": true,
                      "m_RichText": true,
                      "m_HorizontalOverflow": 1,
                      "m_VerticalOverflow": 1,
                      "m_LineSpacing": 1.2999999523162842
                    },
                    "m_Text": "<color=grey>HOVER AND PRESS</color> [F]\n <color=grey>TO FLIP WHILE BUILDING</color>"
                  },
                  "GameObjectRefs": {},
                  "ComponentRefs": {},
                  "SpriteRefs": {}
                }
              ],
              "Children": []
            }
          ]
        }
      ]
    }
  ]
}